BSTA 526 Winter 2024 - n_distinct
…
#Now let's change to na.rm = TRUE
n_distinct(starwars$hair_color, na.rm = TRUE)

[1] 12

#Let's try with multiple vectors. Missing values will be included in the count.
n_distinct(starwars$hair_color, starwars$eye_color)

[1] 35

#What are the distinct pairs?
starwars %>% distinct(eye_color, hair_color)

# A tibble: 35 × 2
   eye_color hair_color   
   <chr>     <chr>        
 1 blue      blond        
 2 yellow    <NA>         
 3 red       <NA>         
 4 yellow    none         
 5 brown     brown        
 6 blue      brown, grey  
 7 blue      brown        
 8 brown     black        
 9 blue-gray auburn, white
10 blue      auburn, grey 
# ℹ 25 more rows
…
